ST558 Project 1
…
  colnames(census_parsed) <- census_parsed[1,] #finds column names and assigns them
  census_parsed <- census_parsed[-1,] #remove first row (column names)
  census_tibble <- as_tibble(census_parsed) #transform to tibble
  class(census_tibble) <- c("census", class(census_tibble)) #make tibble a census class
  return(census_tibble)
}

APIurl <- "https://api.census.gov/data/2022/acs/acs1/pums?get=SEX,PWGTP,JWAP,MAR&SCHL=24&for=state:09&key=51fa8d7040e7bff1dae932352f6b998a4678a557"

api_tibble(APIurl)

# A tibble: 600 × 6
   SEX   PWGTP JWAP  MAR   SCHL  state
   <chr> <chr> <chr> <chr> <chr> <chr>
 1 1     16    0     5     24    09   
 2 2     42    102   1     24    09   
 3 1     44    0     1     24    09   
 4 1     44    112   5     24    09   
 5 2     37    83    1     24    09   
 6 1     33    112   5     24    09   
 7 2     62    0     1     24    09   
 8 2     97    112   5     24    09   
 9 1     261   106   1     24    09   
10 1     76    89    1     24    09   
# ℹ 590 more rows
…
  return(API_data)
}

Let’s test calling the API using out new function!

As you can see this takes the information we want very nicely and outputs all the variables in a usable format. This saves us time as their are many combinations of variables we could ask for and we don’t need to uniquely parsing and converting our data.

test_tib <- call_API(2021, 
                     c("PWGTP", "AGEP", "GASP", "GRPIP", "JWAP", "JWDP", "JWMNP"),
                     c("FER", "HHL", "SCH", "SCHL", "SEX"),
                     "state", 
                     "09")
test_tib

# A tibble: 36,665 × 13
   FER   HHL   SCH   SCHL  SEX   PWGTP  AGEP  GASP GRPIP JWAP  JWDP  JWMNP state
   <fct> <fct> <fct> <fct> <fct> <dbl> <dbl> <dbl> <dbl> <tim> <tim> <dbl> <fct>
 1 N/A … N/A … Yes,… Grad… male      6    13    NA    NA    NA    NA    NA Conn…
 2 No    N/A … Yes,… 1 or… fema…    84    20    NA    NA 10:02 09:32    30 Conn…
 3 N/A … N/A … No, … Bach… male     14    89    NA    NA    NA    NA    NA Conn…
 4 N/A … N/A … Yes,… 1 or… male      9    22    NA    NA    NA    NA    NA Conn…
 5 N/A … N/A … No, … Some… male     80    48    NA    NA    NA    NA    NA Conn…
 6 N/A … N/A … No, … No s… male      3    46    NA    NA    NA    NA    NA Conn…
 7 N/A … N/A … No, … Bach… male     20    56    NA    NA    NA    NA    NA Conn…
 8 No    N/A … Yes,… 1 or… fema…    46    19    NA    NA    NA    NA    NA Conn…
 9 No    N/A … Yes,… Regu… fema…    35    18    NA    NA    NA    NA    NA Conn…
10 N/A … N/A … No, … Regu… male    138    45    NA    NA    NA    NA    NA Conn…
# ℹ 36,655 more rows
…
Let’s test it!

test_tibble <- call_API_mult_years(c(2019, 2021, 2022),
                                   c("PWGTP", "AGEP","GASP", "GRPIP", "JWAP",
                                     "JWDP", "JWMNP"),
                                   c("SEX","FER", "HHL",
                                     "SCH", "SCHL"),
                                   "state",
                                   "09")

test_tibble

# A tibble: 109,612 × 14
   SEX   FER   HHL   SCH   SCHL  PWGTP  AGEP  GASP GRPIP JWAP  JWDP  JWMNP state
   <fct> <fct> <fct> <fct> <fct> <dbl> <dbl> <dbl> <dbl> <tim> <tim> <dbl> <fct>
 1 fema… N/A … N/A … No, … Some…    11    87    NA    NA    NA    NA    NA Conn…
 2 fema… No    N/A … Yes,… 1 or…    79    21    NA    NA    NA    NA    NA Conn…
 3 male  N/A … N/A … Yes,… 1 or…   107    20    NA    NA    NA    NA    NA Conn…
 4 male  N/A … N/A … Yes,… 1 or…    65    21    NA    NA    NA    NA    NA Conn…
 5 male  N/A … N/A … No, … 1 or…    27    84    NA    NA    NA    NA    NA Conn…
 6 fema… No    N/A … Yes,… 1 or…   104    21    NA    NA    NA    NA    NA Conn…
 7 male  N/A … N/A … No, … Regu…    77    53    NA    NA    NA    NA    NA Conn…
 8 male  N/A … N/A … Yes,… Grad…    18    19    NA    NA    NA    NA    NA Conn…
 9 fema… No    N/A … Yes,… 1 or…    59    18    NA    NA    NA    NA    NA Conn…
10 fema… No    N/A … Yes,… 1 or…    85    20    NA    NA    NA    NA    NA Conn…
# ℹ 109,602 more rows
# ℹ 1 more variable: Year <dbl>
…
$SCH_count
# A tibble: 4 × 2
  SCH                                             count
  <fct>                                           <dbl>
1 N/A (less than 3 years old)                    314808
2 No, has not attended in the last 3 months     7853520
3 Yes, private school or college or home school  538644
4 Yes, public school or public college          2090117

$SCHL_count
# A tibble: 25 × 2
   SCHL                                           count
   <fct>                                          <dbl>
 1 1 or more years of college credit, no degree 1095805
 2 12th grade - no diploma                       146012
 3 Associate's degree                            610707
 4 Bachelor's degree                            1895717
 5 Doctorate degree                              140878
 6 GED or alternative credential                 263345
 7 Grade 1                                       116305
 8 Grade 10                                      231447
 9 Grade 11                                      261540
10 Grade 2                                       129357
# ℹ 15 more rows
…
